<svg width="182" height="42" viewBox="0 0 182 42" xmlns="http://www.w3.org/2000/svg">
    <defs>
        <linearGradient x1="104.039%" y1="-28.993%" x2="-9.852%" y2="122.661%" id="a">
            <stop stop-color="#795B38" offset="0%"/>
            <stop stop-color="#E9D19F" offset="48.299%"/>
            <stop stop-color="#AD8B5A" offset="100%"/>
        </linearGradient>
        <linearGradient x1="-218.812%" y1="95.222%" x2="588.076%" y2="-43.792%" id="b">
            <stop stop-color="#8A6E2A" offset="0%"/>
            <stop stop-color="#8D712C" offset="6.351%"/>
            <stop stop-color="#987A32" offset="12.69%"/>
            <stop stop-color="#AB8C3F" offset="19.02%"/>
            <stop stop-color="#C8A857" offset="25.36%"/>
            <stop stop-color="#F4D27A" offset="31.65%"/>
            <stop stop-color="#FFDC81" offset="32.54%"/>
            <stop stop-color="#E0C06E" offset="39.72%"/>
            <stop stop-color="#B69A51" offset="50%"/>
            <stop stop-color="#B99C53" offset="53.96%"/>
            <stop stop-color="#C3A55A" offset="57.57%"/>
            <stop stop-color="#D4B566" offset="61.05%"/>
            <stop stop-color="#EECD77" offset="64.42%"/>
            <stop stop-color="#FFDC81" offset="65.87%"/>
            <stop stop-color="#EAC975" offset="71.24%"/>
            <stop stop-color="#C1A359" offset="80.67%"/>
            <stop stop-color="#8B7134" offset="92.96%"/>
            <stop stop-color="#6D5723" offset="100%"/>
        </linearGradient>
        <linearGradient x1="-100.843%" y1="99.747%" x2="424.29%" y2="-70.351%" id="c">
            <stop stop-color="#8A6E2A" offset="0%"/>
            <stop stop-color="#8D712C" offset="6.351%"/>
            <stop stop-color="#987A32" offset="12.69%"/>
            <stop stop-color="#AB8C3F" offset="19.02%"/>
            <stop stop-color="#C8A857" offset="25.36%"/>
            <stop stop-color="#F4D27A" offset="31.65%"/>
            <stop stop-color="#FFDC81" offset="32.54%"/>
            <stop stop-color="#E0C06E" offset="39.72%"/>
            <stop stop-color="#B69A51" offset="50%"/>
            <stop stop-color="#B99C53" offset="53.96%"/>
            <stop stop-color="#C3A55A" offset="57.57%"/>
            <stop stop-color="#D4B566" offset="61.05%"/>
            <stop stop-color="#EECD77" offset="64.42%"/>
            <stop stop-color="#FFDC81" offset="65.87%"/>
            <stop stop-color="#EAC975" offset="71.24%"/>
            <stop stop-color="#C1A359" offset="80.67%"/>
            <stop stop-color="#8B7134" offset="92.96%"/>
            <stop stop-color="#6D5723" offset="100%"/>
        </linearGradient>
        <linearGradient x1="-220.884%" y1="71.036%" x2="729.355%" y2="-2.75%" id="d">
            <stop stop-color="#8A6E2A" offset="0%"/>
            <stop stop-color="#8D712C" offset="6.351%"/>
            <stop stop-color="#987A32" offset="12.69%"/>
            <stop stop-color="#AB8C3F" offset="19.02%"/>
            <stop stop-color="#C8A857" offset="25.36%"/>
            <stop stop-color="#F4D27A" offset="31.65%"/>
            <stop stop-color="#FFDC81" offset="32.54%"/>
            <stop stop-color="#E0C06E" offset="39.72%"/>
            <stop stop-color="#B69A51" offset="50%"/>
            <stop stop-color="#B99C53" offset="53.96%"/>
            <stop stop-color="#C3A55A" offset="57.57%"/>
            <stop stop-color="#D4B566" offset="61.05%"/>
            <stop stop-color="#EECD77" offset="64.42%"/>
            <stop stop-color="#FFDC81" offset="65.87%"/>
            <stop stop-color="#EAC975" offset="71.24%"/>
            <stop stop-color="#C1A359" offset="80.67%"/>
            <stop stop-color="#8B7134" offset="92.96%"/>
            <stop stop-color="#6D5723" offset="100%"/>
        </linearGradient>
        <linearGradient x1="-131.312%" y1="80.236%" x2="655.988%" y2="-52.11%" id="e">
            <stop stop-color="#8A6E2A" offset="0%"/>
            <stop stop-color="#8D712C" offset="6.351%"/>
            <stop stop-color="#987A32" offset="12.69%"/>
            <stop stop-color="#AB8C3F" offset="19.02%"/>
            <stop stop-color="#C8A857" offset="25.36%"/>
            <stop stop-color="#F4D27A" offset="31.65%"/>
            <stop stop-color="#FFDC81" offset="32.54%"/>
            <stop stop-color="#E0C06E" offset="39.72%"/>
            <stop stop-color="#B69A51" offset="50%"/>
            <stop stop-color="#B99C53" offset="53.96%"/>
            <stop stop-color="#C3A55A" offset="57.57%"/>
            <stop stop-color="#D4B566" offset="61.05%"/>
            <stop stop-color="#EECD77" offset="64.42%"/>
            <stop stop-color="#FFDC81" offset="65.87%"/>
            <stop stop-color="#EAC975" offset="71.24%"/>
            <stop stop-color="#C1A359" offset="80.67%"/>
            <stop stop-color="#8B7134" offset="92.96%"/>
            <stop stop-color="#6D5723" offset="100%"/>
        </linearGradient>
        <linearGradient x1="-106.96%" y1="73.935%" x2="613.636%" y2="-36.935%" id="f">
            <stop stop-color="#8A6E2A" offset="0%"/>
            <stop stop-color="#8D712C" offset="6.351%"/>
            <stop stop-color="#987A32" offset="12.69%"/>
            <stop stop-color="#AB8C3F" offset="19.02%"/>
            <stop stop-color="#C8A857" offset="25.36%"/>
            <stop stop-color="#F4D27A" offset="31.65%"/>
            <stop stop-color="#FFDC81" offset="32.54%"/>
            <stop stop-color="#E0C06E" offset="39.72%"/>
            <stop stop-color="#B69A51" offset="50%"/>
            <stop stop-color="#B99C53" offset="53.96%"/>
            <stop stop-color="#C3A55A" offset="57.57%"/>
            <stop stop-color="#D4B566" offset="61.05%"/>
            <stop stop-color="#EECD77" offset="64.42%"/>
            <stop stop-color="#FFDC81" offset="65.87%"/>
            <stop stop-color="#EAC975" offset="71.24%"/>
            <stop stop-color="#C1A359" offset="80.67%"/>
            <stop stop-color="#8B7134" offset="92.96%"/>
            <stop stop-color="#6D5723" offset="100%"/>
        </linearGradient>
        <linearGradient x1="-325.068%" y1="85.562%" x2="835.631%" y2="-24.528%" id="g">
            <stop stop-color="#8A6E2A" offset="0%"/>
            <stop stop-color="#8D712C" offset="6.351%"/>
            <stop stop-color="#987A32" offset="12.69%"/>
            <stop stop-color="#AB8C3F" offset="19.02%"/>
            <stop stop-color="#C8A857" offset="25.36%"/>
            <stop stop-color="#F4D27A" offset="31.65%"/>
            <stop stop-color="#FFDC81" offset="32.54%"/>
            <stop stop-color="#E0C06E" offset="39.72%"/>
            <stop stop-color="#B69A51" offset="50%"/>
            <stop stop-color="#B99C53" offset="53.96%"/>
            <stop stop-color="#C3A55A" offset="57.57%"/>
            <stop stop-color="#D4B566" offset="61.05%"/>
            <stop stop-color="#EECD77" offset="64.42%"/>
            <stop stop-color="#FFDC81" offset="65.87%"/>
            <stop stop-color="#EAC975" offset="71.24%"/>
            <stop stop-color="#C1A359" offset="80.67%"/>
            <stop stop-color="#8B7134" offset="92.96%"/>
            <stop stop-color="#6D5723" offset="100%"/>
        </linearGradient>
        <linearGradient x1="-23.305%" y1="92.746%" x2="151.034%" y2="6.659%" id="h">
            <stop stop-color="#8A6E2A" offset="0%"/>
            <stop stop-color="#8D712C" offset="6.351%"/>
            <stop stop-color="#987A32" offset="12.69%"/>
            <stop stop-color="#AB8C3F" offset="19.02%"/>
            <stop stop-color="#C8A857" offset="25.36%"/>
            <stop stop-color="#F4D27A" offset="31.65%"/>
            <stop stop-color="#FFDC81" offset="32.54%"/>
            <stop stop-color="#E0C06E" offset="39.72%"/>
            <stop stop-color="#B69A51" offset="50%"/>
            <stop stop-color="#B99C53" offset="53.96%"/>
            <stop stop-color="#C3A55A" offset="57.57%"/>
            <stop stop-color="#D4B566" offset="61.05%"/>
            <stop stop-color="#EECD77" offset="64.42%"/>
            <stop stop-color="#FFDC81" offset="65.87%"/>
            <stop stop-color="#EAC975" offset="71.24%"/>
            <stop stop-color="#C1A359" offset="80.67%"/>
            <stop stop-color="#8B7134" offset="92.96%"/>
            <stop stop-color="#6D5723" offset="100%"/>
        </linearGradient>
        <linearGradient x1="-62.948%" y1="76.782%" x2="194.154%" y2="7.869%" id="i">
            <stop stop-color="#8A6E2A" offset="0%"/>
            <stop stop-color="#8D712C" offset="6.351%"/>
            <stop stop-color="#987A32" offset="12.69%"/>
            <stop stop-color="#AB8C3F" offset="19.02%"/>
            <stop stop-color="#C8A857" offset="25.36%"/>
            <stop stop-color="#F4D27A" offset="31.65%"/>
            <stop stop-color="#FFDC81" offset="32.54%"/>
            <stop stop-color="#E0C06E" offset="39.72%"/>
            <stop stop-color="#B69A51" offset="50%"/>
            <stop stop-color="#B99C53" offset="53.96%"/>
            <stop stop-color="#C3A55A" offset="57.57%"/>
            <stop stop-color="#D4B566" offset="61.05%"/>
            <stop stop-color="#EECD77" offset="64.42%"/>
            <stop stop-color="#FFDC81" offset="65.87%"/>
            <stop stop-color="#EAC975" offset="71.24%"/>
            <stop stop-color="#C1A359" offset="80.67%"/>
            <stop stop-color="#8B7134" offset="92.96%"/>
            <stop stop-color="#6D5723" offset="100%"/>
        </linearGradient>
        <linearGradient x1="-98.726%" y1="92.874%" x2="158.63%" y2="23.824%" id="j">
            <stop stop-color="#8A6E2A" offset="0%"/>
            <stop stop-color="#8D712C" offset="6.351%"/>
            <stop stop-color="#987A32" offset="12.69%"/>
            <stop stop-color="#AB8C3F" offset="19.02%"/>
            <stop stop-color="#C8A857" offset="25.36%"/>
            <stop stop-color="#F4D27A" offset="31.65%"/>
            <stop stop-color="#FFDC81" offset="32.54%"/>
            <stop stop-color="#E0C06E" offset="39.72%"/>
            <stop stop-color="#B69A51" offset="50%"/>
            <stop stop-color="#B99C53" offset="53.96%"/>
            <stop stop-color="#C3A55A" offset="57.57%"/>
            <stop stop-color="#D4B566" offset="61.05%"/>
            <stop stop-color="#EECD77" offset="64.42%"/>
            <stop stop-color="#FFDC81" offset="65.87%"/>
            <stop stop-color="#EAC975" offset="71.24%"/>
            <stop stop-color="#C1A359" offset="80.67%"/>
            <stop stop-color="#8B7134" offset="92.96%"/>
            <stop stop-color="#6D5723" offset="100%"/>
        </linearGradient>
    </defs>
    <g fill="none" fill-rule="evenodd">
        <path d="M36.082 10.995A2.914 2.914 0 0 1 39 13.902v7.722h-7.667c-2.707 0-4.908 2.185-4.908 4.89 0 2.697 2.192 4.89 4.908 4.89h7.659v7.697A2.905 2.905 0 0 1 36.082 42H2.91A2.905 2.905 0 0 1 0 39.101V13.894a2.905 2.905 0 0 1 2.91-2.9zM31.014 24.49a2.075 2.075 0 1 1 .957 4.04 2.075 2.075 0 1 1-.957-4.04zm.328-21.167a1.384 1.384 0 0 1 1.847.63l2.58 5.227H19.315zM24.105.92l1.738 3.395-9.97 4.865H3.441L21.861.172a1.683 1.683 0 0 1 2.244.748z" fill="url(#a)"/>
        <g fill-rule="nonzero">
            <path d="M6.047 6.928a.678.678 0 0 0-.673.688c0 .382.299.688.673.688a.676.676 0 0 0 .623-.425h3.53l.515-.526H6.66a.673.673 0 0 0-.614-.425zm0 .85a.16.16 0 0 1-.158-.162c0-.085.075-.161.158-.161a.16.16 0 0 1 .158.161.165.165 0 0 1-.158.161z" fill="url(#b)" transform="translate(9.017 15.042)"/>
            <path d="M4.452 8.873a.67.67 0 0 0-.623-.433.678.678 0 0 0-.673.687c0 .383.3.688.673.688.274 0 .515-.17.623-.416h.797l2.95 3.014h3.164v-.526H8.406L5.457 8.873H4.452zm-.631.416a.16.16 0 0 1-.158-.162.16.16 0 0 1 .158-.16.16.16 0 0 1 .158.16c.008.085-.067.162-.158.162z" fill="url(#c)" transform="translate(9.017 15.042)"/>
            <path d="M6.86 13.653a.914.914 0 0 1-.032.263h4.535v-.526H6.828c.016.085.033.17.033.263z" fill="url(#d)" transform="translate(9.017 15.042)"/>
            <path d="M6.952 11.878H3.281a.676.676 0 0 0-.623-.424.678.678 0 0 0-.673.688c0 .382.3.687.673.687a.676.676 0 0 0 .623-.424h4.178l-.507-.527zm-4.302.433a.16.16 0 0 1-.158-.16.16.16 0 0 1 .158-.162.16.16 0 0 1 .157.161c.009.085-.066.161-.157.161z" fill="url(#e)" transform="translate(9.017 15.042)"/>
            <path d="M5.474 10.376H1.296a.676.676 0 0 0-.623-.425.678.678 0 0 0-.673.688c0 .382.299.687.673.687a.676.676 0 0 0 .623-.424H5.98l-.506-.526zM.673 10.8a.16.16 0 0 1-.158-.161c0-.085.075-.162.158-.162a.16.16 0 0 1 .158.162.16.16 0 0 1-.158.161z" fill="url(#f)" transform="translate(9.017 15.042)"/>
            <path fill="url(#g)" d="M11.363 10.902v-.526H7.65l.515.526z" transform="translate(9.017 15.042)"/>
            <path d="M22.318 2.242c-2.383 0-4.626.95-6.312 2.674a9.283 9.283 0 0 0-1.711 2.445h-2.85L9.968 8.873H7.882a.676.676 0 0 0-.623-.425.678.678 0 0 0-.672.688c0 .382.299.688.672.688a.676.676 0 0 0 .623-.425h2.301l1.479-1.511h2.408c-.132.322-.24.645-.332.985h-1.86v5.12h1.893c.092.314.2.62.324.917H7.251l-.955-.977a.757.757 0 0 0 .058-.272.678.678 0 0 0-.673-.687.678.678 0 0 0-.672.687c0 .382.299.688.672.688a.596.596 0 0 0 .25-.05l1.113 1.128h7.292a9.036 9.036 0 0 0 1.686 2.386c1.686 1.724 3.93 2.675 6.313 2.675 2.384 0 4.626-.951 6.313-2.675a9.537 9.537 0 0 0 1.08-1.333v-.136h-.549c-1.528 2.183-4.028 3.609-6.844 3.609-4.635 0-8.406-3.855-8.406-8.593 0-4.737 3.771-8.592 8.406-8.592 2.857 0 5.382 1.46 6.902 3.693h.49V6.25a8.645 8.645 0 0 0-1.08-1.333c-1.702-1.732-3.945-2.674-6.329-2.674zM7.26 9.289a.16.16 0 0 1-.157-.162.16.16 0 0 1 .157-.16.16.16 0 0 1 .158.16.16.16 0 0 1-.158.162zm5.125 4.169V9.39h1.221a9.11 9.11 0 0 0-.207 1.97c0 .713.083 1.417.232 2.097h-1.246zm-6.711.356a.16.16 0 0 1-.158-.161.16.16 0 0 1 .158-.161.16.16 0 0 1 .158.16.16.16 0 0 1-.158.162z" fill="url(#h)" transform="translate(9.017 15.042)"/>
            <path d="m25.4 21.023-.175.06v.746c-.938.272-1.91.408-2.898.408-.989 0-1.96-.136-2.9-.408v-.747l-.174-.06a9.937 9.937 0 0 1-5.066-3.88.702.702 0 0 0 .124-.39.678.678 0 0 0-.672-.688.678.678 0 0 0-.673.688c0 .382.299.688.673.688.041 0 .083-.009.116-.009a10.493 10.493 0 0 0 5.166 4.033v.764l.183.06c1.046.323 2.135.492 3.231.492 1.105 0 2.184-.161 3.231-.492l.183-.06v-.764a10.415 10.415 0 0 0 3.978-2.572v-.765c-1.18 1.334-2.674 2.344-4.327 2.896zm-11.778-4.101a.16.16 0 0 1-.158-.162.16.16 0 0 1 .158-.16c.083 0 .158.076.158.16a.16.16 0 0 1-.158.162z" fill="url(#i)" transform="translate(9.017 15.042)"/>
            <path d="m25.732.552-.183-.06A10.968 10.968 0 0 0 22.32 0c-1.105 0-2.185.161-3.232.492l-.182.06v.764C16.82 2.055 15 3.481 13.738 5.349c-.041-.008-.083-.008-.116-.008a.678.678 0 0 0-.673.687c0 .382.3.688.673.688a.678.678 0 0 0 .673-.688.643.643 0 0 0-.125-.39c1.23-1.817 3.015-3.193 5.067-3.88l.174-.06V.951c.939-.272 1.91-.408 2.899-.408.988 0 1.96.136 2.899.408v.747l.174.06a9.83 9.83 0 0 1 4.311 2.895v-.764a10.452 10.452 0 0 0-3.978-2.573V.552h.016zM13.622 6.19a.16.16 0 0 1-.158-.162c0-.085.075-.161.158-.161s.158.076.158.161a.16.16 0 0 1-.158.162z" fill="url(#j)" transform="translate(9.017 15.042)"/>
        </g>
        <text font-family="Rubik-Medium, Rubik" font-size="28" font-weight="400" fill="#DDC391">
                    <tspan x="55" y="34">EL-Wallet</tspan>
                </text>
    </g>
</svg>
