<?xml version="1.0" encoding="UTF-8"?>
<svg width="160px" height="160px" viewBox="0 0 160 160" version="1.1" xmlns="http://www.w3.org/2000/svg" xmlns:xlink="http://www.w3.org/1999/xlink">
    <title>DE04B7AA-E9BD-457F-B606-7309EE1A14AE</title>
    <defs>
        <linearGradient x1="104.547014%" y1="-28.9927774%" x2="-10.4156511%" y2="122.661161%" id="linearGradient-1">
            <stop stop-color="#795B38" offset="0%"></stop>
            <stop stop-color="#E9D19F" offset="48.2989545%"></stop>
            <stop stop-color="#AD8B5A" offset="100%"></stop>
        </linearGradient>
        <linearGradient x1="-218.812442%" y1="92.551839%" x2="588.076361%" y2="-38.2543633%" id="linearGradient-2">
            <stop stop-color="#8A6E2A" offset="0%"></stop>
            <stop stop-color="#8D712C" offset="6.351254%"></stop>
            <stop stop-color="#987A32" offset="12.69%"></stop>
            <stop stop-color="#AB8C3F" offset="19.02%"></stop>
            <stop stop-color="#C8A857" offset="25.36%"></stop>
            <stop stop-color="#F4D27A" offset="31.65%"></stop>
            <stop stop-color="#FFDC81" offset="32.54%"></stop>
            <stop stop-color="#E0C06E" offset="39.72%"></stop>
            <stop stop-color="#B69A51" offset="50%"></stop>
            <stop stop-color="#B99C53" offset="53.96%"></stop>
            <stop stop-color="#C3A55A" offset="57.57%"></stop>
            <stop stop-color="#D4B566" offset="61.05%"></stop>
            <stop stop-color="#EECD77" offset="64.42%"></stop>
            <stop stop-color="#FFDC81" offset="65.87%"></stop>
            <stop stop-color="#EAC975" offset="71.24%"></stop>
            <stop stop-color="#C1A359" offset="80.67%"></stop>
            <stop stop-color="#8B7134" offset="92.96%"></stop>
            <stop stop-color="#6D5723" offset="100%"></stop>
        </linearGradient>
        <path d="M14.1004756,15.6719238 C13.2288802,15.6719238 12.531604,16.3633322 12.531604,17.2275928 C12.531604,18.0918533 13.2288802,18.7832617 14.1004756,18.7832617 C14.7590143,18.7832617 15.320709,18.3799401 15.5531345,17.8229722 L23.7848681,17.8229722 L24.9857328,16.6322133 L15.5337657,16.6322133 C15.3013403,16.0752454 14.7396455,15.6719238 14.1004756,15.6719238 Z M14.1004756,17.5925027 C13.8874189,17.5925027 13.7324687,17.4196506 13.7324687,17.2275928 C13.7324687,17.0355349 13.9067877,16.8626828 14.1004756,16.8626828 C14.3135322,16.8626828 14.4684825,17.0355349 14.4684825,17.2275928 C14.4684825,17.4196506 14.2941634,17.5925027 14.1004756,17.5925027 Z" id="path-3"></path>
        <linearGradient x1="-100.842915%" y1="96.809851%" x2="424.290081%" y2="-63.2449726%" id="linearGradient-4">
            <stop stop-color="#8A6E2A" offset="0%"></stop>
            <stop stop-color="#8D712C" offset="6.351254%"></stop>
            <stop stop-color="#987A32" offset="12.69%"></stop>
            <stop stop-color="#AB8C3F" offset="19.02%"></stop>
            <stop stop-color="#C8A857" offset="25.36%"></stop>
            <stop stop-color="#F4D27A" offset="31.65%"></stop>
            <stop stop-color="#FFDC81" offset="32.54%"></stop>
            <stop stop-color="#E0C06E" offset="39.72%"></stop>
            <stop stop-color="#B69A51" offset="50%"></stop>
            <stop stop-color="#B99C53" offset="53.96%"></stop>
            <stop stop-color="#C3A55A" offset="57.57%"></stop>
            <stop stop-color="#D4B566" offset="61.05%"></stop>
            <stop stop-color="#EECD77" offset="64.42%"></stop>
            <stop stop-color="#FFDC81" offset="65.87%"></stop>
            <stop stop-color="#EAC975" offset="71.24%"></stop>
            <stop stop-color="#C1A359" offset="80.67%"></stop>
            <stop stop-color="#8B7134" offset="92.96%"></stop>
            <stop stop-color="#6D5723" offset="100%"></stop>
        </linearGradient>
        <path d="M10.3816688,20.0700495 C10.1492434,19.4938759 9.58754864,19.0905543 8.92900994,19.0905543 C8.05741461,19.0905543 7.36013835,19.7819627 7.36013835,20.6462232 C7.36013835,21.5104837 8.05741461,22.2018921 8.92900994,22.2018921 C9.56817985,22.2018921 10.1298746,21.8177763 10.3816688,21.2608084 L12.2410722,21.2608084 L19.1169909,28.0788635 L26.4964981,28.0788635 L26.4964981,26.8881046 L19.6012105,26.8881046 L12.7252918,20.0700495 L10.3816688,20.0700495 Z M8.90964116,21.0111332 C8.69658452,21.0111332 8.54163424,20.8382811 8.54163424,20.6462232 C8.54163424,20.4349595 8.71595331,20.2813132 8.90964116,20.2813132 C9.1226978,20.2813132 9.27764808,20.4541653 9.27764808,20.6462232 C9.29701686,20.8382811 9.1226978,21.0111332 8.90964116,21.0111332 Z" id="path-5"></path>
        <linearGradient x1="-220.884432%" y1="69.7935757%" x2="729.355128%" y2="0.364290309%" id="linearGradient-6">
            <stop stop-color="#8A6E2A" offset="0%"></stop>
            <stop stop-color="#8D712C" offset="6.351254%"></stop>
            <stop stop-color="#987A32" offset="12.69%"></stop>
            <stop stop-color="#AB8C3F" offset="19.02%"></stop>
            <stop stop-color="#C8A857" offset="25.36%"></stop>
            <stop stop-color="#F4D27A" offset="31.65%"></stop>
            <stop stop-color="#FFDC81" offset="32.54%"></stop>
            <stop stop-color="#E0C06E" offset="39.72%"></stop>
            <stop stop-color="#B69A51" offset="50%"></stop>
            <stop stop-color="#B99C53" offset="53.96%"></stop>
            <stop stop-color="#C3A55A" offset="57.57%"></stop>
            <stop stop-color="#D4B566" offset="61.05%"></stop>
            <stop stop-color="#EECD77" offset="64.42%"></stop>
            <stop stop-color="#FFDC81" offset="65.87%"></stop>
            <stop stop-color="#EAC975" offset="71.24%"></stop>
            <stop stop-color="#C1A359" offset="80.67%"></stop>
            <stop stop-color="#8B7134" offset="92.96%"></stop>
            <stop stop-color="#6D5723" offset="100%"></stop>
        </linearGradient>
        <path d="M15.9986165,30.8829087 C15.9986165,31.0941724 15.9792477,31.2862303 15.9211414,31.4782882 L26.4964981,31.4782882 L26.4964981,30.2875293 L15.9211414,30.2875293 C15.9598789,30.4795872 15.9986165,30.6716451 15.9986165,30.8829087 Z" id="path-7"></path>
        <linearGradient x1="-131.311836%" y1="78.450559%" x2="655.988012%" y2="-46.0812649%" id="linearGradient-8">
            <stop stop-color="#8A6E2A" offset="0%"></stop>
            <stop stop-color="#8D712C" offset="6.351254%"></stop>
            <stop stop-color="#987A32" offset="12.69%"></stop>
            <stop stop-color="#AB8C3F" offset="19.02%"></stop>
            <stop stop-color="#C8A857" offset="25.36%"></stop>
            <stop stop-color="#F4D27A" offset="31.65%"></stop>
            <stop stop-color="#FFDC81" offset="32.54%"></stop>
            <stop stop-color="#E0C06E" offset="39.72%"></stop>
            <stop stop-color="#B69A51" offset="50%"></stop>
            <stop stop-color="#B99C53" offset="53.96%"></stop>
            <stop stop-color="#C3A55A" offset="57.57%"></stop>
            <stop stop-color="#D4B566" offset="61.05%"></stop>
            <stop stop-color="#EECD77" offset="64.42%"></stop>
            <stop stop-color="#FFDC81" offset="65.87%"></stop>
            <stop stop-color="#EAC975" offset="71.24%"></stop>
            <stop stop-color="#C1A359" offset="80.67%"></stop>
            <stop stop-color="#8B7134" offset="92.96%"></stop>
            <stop stop-color="#6D5723" offset="100%"></stop>
        </linearGradient>
        <path d="M16.2116732,26.8688988 L7.65067013,26.8688988 C7.4182447,26.311931 6.85654994,25.9086094 6.19801124,25.9086094 C5.32641591,25.9086094 4.62913965,26.6000178 4.62913965,27.4642783 C4.62913965,28.3285388 5.32641591,29.0199472 6.19801124,29.0199472 C6.85654994,29.0199472 7.4182447,28.6166256 7.65067013,28.0596578 L17.393169,28.0596578 L16.2116732,26.8688988 Z M6.17864246,27.8483941 C5.96558582,27.8483941 5.81063554,27.675542 5.81063554,27.4834841 C5.81063554,27.2722204 5.9849546,27.1185741 6.17864246,27.1185741 C6.39169909,27.1185741 6.54664937,27.2914262 6.54664937,27.4834841 C6.56601816,27.675542 6.39169909,27.8483941 6.17864246,27.8483941 Z" id="path-9"></path>
        <linearGradient x1="-106.960417%" y1="72.5220651%" x2="613.636389%" y2="-31.8022201%" id="linearGradient-10">
            <stop stop-color="#8A6E2A" offset="0%"></stop>
            <stop stop-color="#8D712C" offset="6.351254%"></stop>
            <stop stop-color="#987A32" offset="12.69%"></stop>
            <stop stop-color="#AB8C3F" offset="19.02%"></stop>
            <stop stop-color="#C8A857" offset="25.36%"></stop>
            <stop stop-color="#F4D27A" offset="31.65%"></stop>
            <stop stop-color="#FFDC81" offset="32.54%"></stop>
            <stop stop-color="#E0C06E" offset="39.72%"></stop>
            <stop stop-color="#B69A51" offset="50%"></stop>
            <stop stop-color="#B99C53" offset="53.96%"></stop>
            <stop stop-color="#C3A55A" offset="57.57%"></stop>
            <stop stop-color="#D4B566" offset="61.05%"></stop>
            <stop stop-color="#EECD77" offset="64.42%"></stop>
            <stop stop-color="#FFDC81" offset="65.87%"></stop>
            <stop stop-color="#EAC975" offset="71.24%"></stop>
            <stop stop-color="#C1A359" offset="80.67%"></stop>
            <stop stop-color="#8B7134" offset="92.96%"></stop>
            <stop stop-color="#6D5723" offset="100%"></stop>
        </linearGradient>
        <path d="M12.7640294,23.4694742 L3.02153048,23.4694742 C2.78910506,22.9125063 2.22741029,22.5091847 1.5688716,22.5091847 C0.697276265,22.5091847 0,23.2005931 0,24.0648536 C0,24.9291141 0.697276265,25.6205226 1.5688716,25.6205226 C2.22741029,25.6205226 2.78910506,25.217201 3.02153048,24.6602331 L13.9455253,24.6602331 L12.7640294,23.4694742 Z M1.5688716,24.4297636 C1.35581496,24.4297636 1.20086468,24.2569115 1.20086468,24.0648536 C1.20086468,23.8727958 1.37518374,23.6999437 1.5688716,23.6999437 C1.78192823,23.6999437 1.93687851,23.8727958 1.93687851,24.0648536 C1.93687851,24.2569115 1.78192823,24.4297636 1.5688716,24.4297636 Z" id="path-11"></path>
        <linearGradient x1="-325.068233%" y1="83.4620194%" x2="835.630649%" y2="-20.1271478%" id="linearGradient-12">
            <stop stop-color="#8A6E2A" offset="0%"></stop>
            <stop stop-color="#8D712C" offset="6.351254%"></stop>
            <stop stop-color="#987A32" offset="12.69%"></stop>
            <stop stop-color="#AB8C3F" offset="19.02%"></stop>
            <stop stop-color="#C8A857" offset="25.36%"></stop>
            <stop stop-color="#F4D27A" offset="31.65%"></stop>
            <stop stop-color="#FFDC81" offset="32.54%"></stop>
            <stop stop-color="#E0C06E" offset="39.72%"></stop>
            <stop stop-color="#B69A51" offset="50%"></stop>
            <stop stop-color="#B99C53" offset="53.96%"></stop>
            <stop stop-color="#C3A55A" offset="57.57%"></stop>
            <stop stop-color="#D4B566" offset="61.05%"></stop>
            <stop stop-color="#EECD77" offset="64.42%"></stop>
            <stop stop-color="#FFDC81" offset="65.87%"></stop>
            <stop stop-color="#EAC975" offset="71.24%"></stop>
            <stop stop-color="#C1A359" offset="80.67%"></stop>
            <stop stop-color="#8B7134" offset="92.96%"></stop>
            <stop stop-color="#6D5723" offset="100%"></stop>
        </linearGradient>
        <polygon id="path-13" points="26.4964981 24.6602331 26.4964981 23.4694742 17.8386511 23.4694742 19.0395158 24.6602331"></polygon>
        <linearGradient x1="-23.3049059%" y1="90.2222918%" x2="151.033535%" y2="9.21814778%" id="linearGradient-14">
            <stop stop-color="#8A6E2A" offset="0%"></stop>
            <stop stop-color="#8D712C" offset="6.351254%"></stop>
            <stop stop-color="#987A32" offset="12.69%"></stop>
            <stop stop-color="#AB8C3F" offset="19.02%"></stop>
            <stop stop-color="#C8A857" offset="25.36%"></stop>
            <stop stop-color="#F4D27A" offset="31.65%"></stop>
            <stop stop-color="#FFDC81" offset="32.54%"></stop>
            <stop stop-color="#E0C06E" offset="39.72%"></stop>
            <stop stop-color="#B69A51" offset="50%"></stop>
            <stop stop-color="#B99C53" offset="53.96%"></stop>
            <stop stop-color="#C3A55A" offset="57.57%"></stop>
            <stop stop-color="#D4B566" offset="61.05%"></stop>
            <stop stop-color="#EECD77" offset="64.42%"></stop>
            <stop stop-color="#FFDC81" offset="65.87%"></stop>
            <stop stop-color="#EAC975" offset="71.24%"></stop>
            <stop stop-color="#C1A359" offset="80.67%"></stop>
            <stop stop-color="#8B7134" offset="92.96%"></stop>
            <stop stop-color="#6D5723" offset="100%"></stop>
        </linearGradient>
        <path d="M52.0439256,5.0703283 C46.4850843,5.0703283 41.2555123,7.22137667 37.3236489,11.1201518 C35.6773022,12.7526439 34.340856,14.6348112 33.3336792,16.6514191 L26.6901859,16.6514191 L23.2425422,20.0700495 L18.3809771,20.0700495 C18.1485517,19.5130816 17.5868569,19.1097601 16.9283182,19.1097601 C16.0567229,19.1097601 15.3594466,19.8011685 15.3594466,20.665429 C15.3594466,21.5296895 16.0567229,22.2210979 16.9283182,22.2210979 C17.5868569,22.2210979 18.1485517,21.8177763 18.3809771,21.2608084 L23.7461306,21.2608084 L27.1937743,17.842178 L32.810722,17.842178 C32.5008214,18.571998 32.2490272,19.301818 32.0359706,20.0700495 L27.6973627,20.0700495 L27.6973627,31.6511403 L32.1134457,31.6511403 C32.3265024,32.3617545 32.5782966,33.0531629 32.8688284,33.7253655 L16.9089494,33.7253655 L14.6815391,31.5166998 C14.7590143,31.3246419 14.8171206,31.1133782 14.8171206,30.9021145 C14.8171206,30.037854 14.1198444,29.3464456 13.248249,29.3464456 C12.3766537,29.3464456 11.6793774,30.037854 11.6793774,30.9021145 C11.6793774,31.766375 12.3766537,32.4577834 13.248249,32.4577834 C13.4613057,32.4577834 13.6549935,32.4193719 13.8293126,32.3425487 L16.4247298,34.8969186 L33.4305231,34.8969186 C34.4183312,36.8751149 35.7354086,38.6804591 37.3623865,40.2937454 C41.2942499,44.1925205 46.5238219,46.3435689 52.0826632,46.3435689 C57.6415045,46.3435689 62.8710765,44.1925205 66.8029399,40.2937454 C67.7520104,39.3526617 68.5848681,38.3347549 69.320882,37.2784365 L69.320882,36.9711439 L68.0425422,36.9711439 C64.4786857,41.9070316 58.6486814,45.1336042 52.0826632,45.1336042 C41.2748811,45.1336042 32.4814527,36.414176 32.4814527,25.6973457 C32.4814527,14.9805154 41.2748811,6.26108722 52.0826632,6.26108722 C58.7455253,6.26108722 64.633636,9.56448293 68.1781236,14.6156054 L69.320882,14.6156054 L69.320882,14.1354607 C68.5848681,13.0599365 67.7520104,12.0420297 66.8029399,11.1201518 C62.832339,7.20217088 57.602767,5.0703283 52.0439256,5.0703283 Z M16.9283182,21.0111332 C16.7152616,21.0111332 16.5603113,20.8382811 16.5603113,20.6462232 C16.5603113,20.4349595 16.7346304,20.2813132 16.9283182,20.2813132 C17.1413748,20.2813132 17.2963251,20.4541653 17.2963251,20.6462232 C17.2963251,20.8382811 17.1413748,21.0111332 16.9283182,21.0111332 Z M28.8788586,30.4411756 L28.8788586,21.2416027 L31.72607,21.2416027 C31.3968007,22.6820368 31.2418504,24.1800884 31.2418504,25.6973457 C31.2418504,27.310632 31.4355383,28.9047125 31.7841764,30.4411756 L28.8788586,30.4411756 Z M13.2288802,31.2478187 C13.0158236,31.2478187 12.8608733,31.0749666 12.8608733,30.8829087 C12.8608733,30.6716451 13.0351924,30.5179988 13.2288802,30.5179988 C13.4419369,30.5179988 13.5968872,30.6908509 13.5968872,30.8829087 C13.5968872,31.0941724 13.4225681,31.2478187 13.2288802,31.2478187 Z" id="path-15"></path>
        <linearGradient x1="-62.9477701%" y1="75.2009315%" x2="194.153816%" y2="10.3568338%" id="linearGradient-16">
            <stop stop-color="#8A6E2A" offset="0%"></stop>
            <stop stop-color="#8D712C" offset="6.351254%"></stop>
            <stop stop-color="#987A32" offset="12.69%"></stop>
            <stop stop-color="#AB8C3F" offset="19.02%"></stop>
            <stop stop-color="#C8A857" offset="25.36%"></stop>
            <stop stop-color="#F4D27A" offset="31.65%"></stop>
            <stop stop-color="#FFDC81" offset="32.54%"></stop>
            <stop stop-color="#E0C06E" offset="39.72%"></stop>
            <stop stop-color="#B69A51" offset="50%"></stop>
            <stop stop-color="#B99C53" offset="53.96%"></stop>
            <stop stop-color="#C3A55A" offset="57.57%"></stop>
            <stop stop-color="#D4B566" offset="61.05%"></stop>
            <stop stop-color="#EECD77" offset="64.42%"></stop>
            <stop stop-color="#FFDC81" offset="65.87%"></stop>
            <stop stop-color="#EAC975" offset="71.24%"></stop>
            <stop stop-color="#C1A359" offset="80.67%"></stop>
            <stop stop-color="#8B7134" offset="92.96%"></stop>
            <stop stop-color="#6D5723" offset="100%"></stop>
        </linearGradient>
        <path d="M59.2297449,47.5535336 L58.8230004,47.6879741 L58.8230004,49.3780836 C56.6343277,49.9926688 54.3681799,50.2999614 52.0632944,50.2999614 C49.758409,50.2999614 47.4922611,49.9926688 45.3035884,49.3780836 L45.3035884,47.6879741 L44.8968439,47.5535336 C40.112754,45.9978647 35.9484652,42.9057327 33.081885,38.776488 C33.2562041,38.5268128 33.3724168,38.2195201 33.3724168,37.8930217 C33.3724168,37.0287612 32.6751405,36.3373528 31.8035452,36.3373528 C30.9319498,36.3373528 30.2346736,37.0287612 30.2346736,37.8930217 C30.2346736,38.7572822 30.9319498,39.4486906 31.8035452,39.4486906 C31.9003891,39.4486906 31.997233,39.4294849 32.0747082,39.4294849 C34.9993947,43.6547584 39.2411587,46.8621252 44.1220925,48.5522346 L44.1220925,50.2807557 L44.5482058,50.4151962 C46.9886727,51.1450162 49.5259836,51.5291319 52.0826632,51.5291319 C54.6587116,51.5291319 57.1766537,51.1642219 59.6171206,50.4151962 L60.0432339,50.2807557 L60.0432339,48.5522346 C63.548984,47.3422699 66.706096,45.3448679 69.320882,42.7328806 L69.320882,41.0043596 C66.5705145,44.0196684 63.0841332,46.3051573 59.2297449,47.5535336 Z M31.7648076,38.2771375 C31.551751,38.2771375 31.3968007,38.1042854 31.3968007,37.9122275 C31.3968007,37.7009638 31.5711198,37.5473175 31.7648076,37.5473175 C31.9584955,37.5473175 32.1328145,37.7201696 32.1328145,37.9122275 C32.1328145,38.1042854 31.9778642,38.2771375 31.7648076,38.2771375 Z" id="path-17"></path>
        <linearGradient x1="-98.7263393%" y1="90.3425821%" x2="158.630308%" y2="25.3697426%" id="linearGradient-18">
            <stop stop-color="#8A6E2A" offset="0%"></stop>
            <stop stop-color="#8D712C" offset="6.351254%"></stop>
            <stop stop-color="#987A32" offset="12.69%"></stop>
            <stop stop-color="#AB8C3F" offset="19.02%"></stop>
            <stop stop-color="#C8A857" offset="25.36%"></stop>
            <stop stop-color="#F4D27A" offset="31.65%"></stop>
            <stop stop-color="#FFDC81" offset="32.54%"></stop>
            <stop stop-color="#E0C06E" offset="39.72%"></stop>
            <stop stop-color="#B69A51" offset="50%"></stop>
            <stop stop-color="#B99C53" offset="53.96%"></stop>
            <stop stop-color="#C3A55A" offset="57.57%"></stop>
            <stop stop-color="#D4B566" offset="61.05%"></stop>
            <stop stop-color="#EECD77" offset="64.42%"></stop>
            <stop stop-color="#FFDC81" offset="65.87%"></stop>
            <stop stop-color="#EAC975" offset="71.24%"></stop>
            <stop stop-color="#C1A359" offset="80.67%"></stop>
            <stop stop-color="#8B7134" offset="92.96%"></stop>
            <stop stop-color="#6D5723" offset="100%"></stop>
        </linearGradient>
        <path d="M60.0044963,1.24837629 L59.5783831,1.11393576 C57.1379161,0.38411578 54.6006053,0 52.0439256,0 C49.4678772,0 46.9499351,0.364909991 44.5094682,1.11393576 L44.083355,1.24837629 L44.083355,2.9768973 C39.2217899,4.64780094 34.9800259,7.8743735 32.0359706,12.0996471 C31.9391267,12.0804413 31.8422827,12.0804413 31.7648076,12.0804413 C30.8932123,12.0804413 30.195936,12.7718497 30.195936,13.6361102 C30.195936,14.5003707 30.8932123,15.1917791 31.7648076,15.1917791 C32.6364029,15.1917791 33.3336792,14.5003707 33.3336792,13.6361102 C33.3336792,13.3096118 33.2368353,13.0023192 33.0431474,12.7526439 C35.9097276,8.64260506 40.0740164,5.53126724 44.8581064,3.97559833 L45.2648508,3.8411578 L45.2648508,2.15104837 C47.4535236,1.53646312 49.7196714,1.2291705 52.0245569,1.2291705 C54.3294423,1.2291705 56.5955901,1.53646312 58.7842629,2.15104837 L58.7842629,3.8411578 L59.1910073,3.97559833 C63.0647644,5.22397461 66.5511457,7.50946351 69.2434068,10.5247724 L69.2434068,8.79625137 C66.6479896,6.20346985 63.4715089,4.18686201 59.9657588,2.9768973 L59.9657588,1.24837629 L60.0044963,1.24837629 Z M31.7648076,14.0010202 C31.551751,14.0010202 31.3968007,13.8281681 31.3968007,13.6361102 C31.3968007,13.4440523 31.5711198,13.2712002 31.7648076,13.2712002 C31.9584955,13.2712002 32.1328145,13.4440523 32.1328145,13.6361102 C32.1328145,13.8281681 31.9778642,14.0010202 31.7648076,14.0010202 Z" id="path-19"></path>
    </defs>
    <g id="Landing-Page" stroke="none" stroke-width="1" fill="none" fill-rule="evenodd">
        <g id="01-Landing-Page" transform="translate(-177.000000, -1504.000000)">
            <g id="Group-13-Copy" transform="translate(0.000000, 1321.000000)">
                <g id="Group-12" transform="translate(102.000000, 183.000000)">
                    <g id="Group-24" transform="translate(75.000000, 0.000000)">
                        <rect id="Rectangle" fill="#FFFFFF" x="0" y="0" width="160" height="160" rx="12.8"></rect>
                        <g id="Group" transform="translate(36.000000, 32.000000)">
                            <path d="M82.8596628,25.1306385 C86.5591007,25.1306385 89.5612624,28.1075358 89.5612624,31.7758415 L89.5612624,31.7758415 L89.5612624,49.4259616 L71.9550367,49.4259616 C65.7376567,49.4259616 60.6824038,54.4194668 60.6824038,60.6037308 L60.6824038,60.6037308 L60.6860776,60.8918592 C60.8400684,66.9242125 65.8157371,71.7815 71.9550367,71.7815 L71.9550367,71.7815 L89.5418936,71.7815 L89.5418936,89.3740028 C89.5418936,93.0231027 86.5591007,96 82.8596628,96 L82.8596628,96 L6.68223087,96 C3.00216169,96 0,93.0423085 0,89.3740028 L0,89.3740028 L0,31.7566357 C0,28.1075358 2.98279291,25.1306385 6.68223087,25.1306385 L6.68223087,25.1306385 Z M71.2214924,55.9763179 C73.7928639,55.3742631 76.3695816,56.9531592 76.976763,59.5028876 C77.5839275,62.05262 75.9916316,64.6076536 73.4202641,65.2097254 C70.8488926,65.8117803 68.2721749,64.2328842 67.6649935,61.6831558 C67.057829,59.1334234 68.6501249,56.5783898 71.2214924,55.9763179 Z M71.9744055,7.59575314 C73.5432771,6.82752158 75.4414181,7.48051841 76.2161695,9.03618732 L76.2161695,9.03618732 L82.1430177,20.9821881 L44.3545179,20.9821881 Z M55.3559879,2.10289748 L59.3459576,9.86203625 L36.4520536,20.9821881 L7.90246433,20.9821881 L50.2038911,0.39358226 C52.102032,-0.528295613 54.4069174,0.220730159 55.3559879,2.10289748 Z" id="Combined-Shape" fill="url(#linearGradient-1)"></path>
                            <g transform="translate(20.279118, 34.810356)" fill-rule="nonzero">
                                <g>
                                    <g id="Shape">
                                        <use fill="url(#linearGradient-2)" xlink:href="#path-3"></use>
                                        <use fill="#3B2407" xlink:href="#path-3"></use>
                                    </g>
                                    <g id="Shape">
                                        <use fill="url(#linearGradient-4)" xlink:href="#path-5"></use>
                                        <use fill="#3B2407" xlink:href="#path-5"></use>
                                    </g>
                                    <g id="Path">
                                        <use fill="url(#linearGradient-6)" xlink:href="#path-7"></use>
                                        <use fill="#3B2407" xlink:href="#path-7"></use>
                                    </g>
                                    <g id="Shape">
                                        <use fill="url(#linearGradient-8)" xlink:href="#path-9"></use>
                                        <use fill="#3B2407" xlink:href="#path-9"></use>
                                    </g>
                                    <g id="Shape">
                                        <use fill="url(#linearGradient-10)" xlink:href="#path-11"></use>
                                        <use fill="#3B2407" xlink:href="#path-11"></use>
                                    </g>
                                    <g id="Path">
                                        <use fill="url(#linearGradient-12)" xlink:href="#path-13"></use>
                                        <use fill="#3B2407" xlink:href="#path-13"></use>
                                    </g>
                                    <g id="Shape">
                                        <use fill="url(#linearGradient-14)" xlink:href="#path-15"></use>
                                        <use fill="#3B2407" xlink:href="#path-15"></use>
                                    </g>
                                    <g id="Shape">
                                        <use fill="url(#linearGradient-16)" xlink:href="#path-17"></use>
                                        <use fill="#3B2407" xlink:href="#path-17"></use>
                                    </g>
                                    <g id="Shape">
                                        <use fill="url(#linearGradient-18)" xlink:href="#path-19"></use>
                                        <use fill="#3B2407" xlink:href="#path-19"></use>
                                    </g>
                                </g>
                            </g>
                        </g>
                    </g>
                </g>
            </g>
        </g>
    </g>
</svg>