<svg width="27" height="27" viewBox="0 0 27 27" xmlns="http://www.w3.org/2000/svg">
    <g transform="translate(.333)" fill="none" fill-rule="evenodd">
        <rect fill-opacity=".811" fill="#FFF" width="26.667" height="26.674" rx="8"/>
        <path d="M7.111 8.56c0-.42.15-.766.45-1.038.3-.273.691-.409 1.172-.409.472 0 .853.134 1.145.402.3.277.45.638.45 1.082 0 .402-.145.737-.437 1.006-.3.276-.695.415-1.184.415h-.013c-.472 0-.854-.139-1.145-.415a1.378 1.378 0 0 1-.438-1.044zm.167 11.001v-8.4h2.858v8.4H7.278zm4.44 0h2.858v-4.69c0-.293.034-.52.103-.679.12-.285.302-.526.547-.723.244-.197.55-.295.92-.295.96 0 1.441.633 1.441 1.898v4.49h2.857v-4.817c0-1.24-.3-2.181-.9-2.822-.601-.642-1.395-.962-2.381-.962-1.107 0-1.97.465-2.587 1.395v.026h-.013l.013-.026v-1.194h-2.857c.017.268.025 1.102.025 2.502 0 1.4-.008 3.366-.025 5.897z" fill="#1D1D1D" fill-rule="nonzero"/>
    </g>
</svg>
