<svg width="108" height="100" xmlns="http://www.w3.org/2000/svg">
    <g fill-rule="nonzero" fill="none">
        <path d="M79.574 3.83c.639-.213 1.277 0 1.703.213 1.063.638 1.702 1.702 1.914 3.191l2.128 11.49h3.617L86.81 6.595C86.383 4.043 85.106 2.128 83.19.85 81.702 0 80-.213 78.511.213L19.36 18.51l11.065.212L79.574 3.83z" fill="#DFB05D"/>
        <path d="M101.322 11.257H24.264L10.651 11a7.499 7.499 0 0 0-4.624 3.857C5.257 16.143 5 17.43 5 18.971v40.486c2.825-.771 5.908-1.286 8.99-1.286 17.723 0 29.107 8.886 29.107 25.858 0 2.828-.257 5.4-1.027 7.971h59.252c3.596 0 6.678-3.343 6.678-7.457V67.829H71.663c-1.284 0-2.055-1.029-2.055-2.058V38.257c0-1.286 1.028-2.057 2.055-2.057H108V18.971c0-4.114-3.082-7.714-6.678-7.714z" fill="#F7EAD4"/>
        <path d="M94.468 18.723h-63.83l-11.276-.212a6.21 6.21 0 0 0-3.83 3.191c-.638 1.064-.851 2.128-.851 3.404v29.362c2.34-.638 4.893-1.064 7.447-1.064 14.68 0 26.595 11.49 26.595 25.532 0 2.34-.212 4.468-.85 6.596h46.595c2.979 0 5.532-2.766 5.532-6.17v-13.83H74.043c-1.064 0-1.703-.851-1.703-1.702V41.064c0-1.064.851-1.702 1.703-1.702H100V25.106c0-3.404-2.553-6.383-5.532-6.383z" fill="#E8C484"/>
        <path d="M75.745 61.915H100V42.766H75.745v19.149zm11.064-13.192c1.702 0 3.191 1.703 3.191 3.617 0 2.128-1.49 3.617-3.191 3.617-1.703 0-3.192-1.702-3.192-3.617 0-1.914 1.49-3.617 3.192-3.617z" fill="#DFB05D"/>
        <path d="M22.34 57.447C10 57.447 0 67.02 0 78.723 0 90.426 10 100 22.34 100c9.15 0 17.66-5.532 20.851-13.83.852-2.34 1.49-4.893 1.49-7.447 0-11.702-10-21.276-22.34-21.276zm8.511 23.404h-6.383v6.383c0 1.064-.851 2.128-2.128 2.128-1.063 0-2.127-.851-2.127-2.128v-6.383H13.83c-1.064 0-2.128-.851-2.128-2.128 0-1.063.851-2.127 2.128-2.127h6.383v-6.383c0-1.064.85-2.128 2.127-2.128 1.064 0 2.128.851 2.128 2.128v6.383h6.383c1.064 0 2.128.85 2.128 2.127 0 1.277-.851 2.128-2.128 2.128z" fill="#08B865"/>
    </g>
</svg>
